\relax 
\providecommand\HyperFirstAtBeginDocument{\AtBeginDocument}
\HyperFirstAtBeginDocument{\ifx\hyper@anchor\@undefined
\global\let\oldcontentsline\contentsline
\gdef\contentsline#1#2#3#4{\oldcontentsline{#1}{#2}{#3}}
\global\let\oldnewlabel\newlabel
\gdef\newlabel#1#2{\newlabelxx{#1}#2}
\gdef\newlabelxx#1#2#3#4#5#6{\oldnewlabel{#1}{{#2}{#3}}}
\AtEndDocument{\ifx\hyper@anchor\@undefined
\let\contentsline\oldcontentsline
\let\newlabel\oldnewlabel
\fi}
\fi}
\global\let\hyper@last\relax 
\gdef\HyperFirstAtBeginDocument#1{#1}
\providecommand\HyField@AuxAddToFields[1]{}
\catcode`"\active
\@writefile{toc}{\beamer@endinputifotherversion {3.10pt}}
\@writefile{nav}{\beamer@endinputifotherversion {3.10pt}}
\select@language{brazil}
\@writefile{toc}{\select@language{brazil}}
\@writefile{lof}{\select@language{brazil}}
\@writefile{lot}{\select@language{brazil}}
\@writefile{nav}{\headcommand {\slideentry {0}{0}{1}{1/1}{}{0}}}
\@writefile{nav}{\headcommand {\beamer@framepages {1}{1}}}
\@writefile{nav}{\headcommand {\slideentry {0}{0}{2}{2/2}{}{0}}}
\@writefile{nav}{\headcommand {\beamer@framepages {2}{2}}}
\@writefile{toc}{\beamer@sectionintoc {1}{Introdu\IeC {\c c}\IeC {\~a}o}{3}{0}{1}}
\@writefile{nav}{\headcommand {\sectionentry {1}{Introdu\IeC {\c c}\IeC {\~a}o}{3}{Introdu\IeC {\c c}\IeC {\~a}o}{0}}}
\@writefile{nav}{\headcommand {\beamer@sectionpages {1}{2}}}
\@writefile{nav}{\headcommand {\beamer@subsectionpages {1}{2}}}
\@writefile{toc}{\beamer@subsectionintoc {1}{1}{Algoritmo de Aprendizagem}{3}{0}{1}}
\@writefile{nav}{\headcommand {\beamer@subsectionentry {0}{1}{1}{3}{Algoritmo de Aprendizagem}}\headcommand {\beamer@subsectionpages {3}{2}}}
\@writefile{nav}{\headcommand {\slideentry {1}{1}{1}{3/3}{Algoritmo de Aprendizagem}{0}}}
\@writefile{nav}{\headcommand {\beamer@framepages {3}{3}}}
\@writefile{toc}{\beamer@subsectionintoc {1}{2}{Tabela de probabilidade conjunta}{4}{0}{1}}
\@writefile{nav}{\headcommand {\beamer@subsectionentry {0}{1}{2}{4}{Tabela de probabilidade conjunta}}\headcommand {\beamer@subsectionpages {3}{3}}}
\@writefile{nav}{\headcommand {\slideentry {1}{2}{1}{4/4}{Tabela de probabilidade conjunta}{0}}}
\@writefile{nav}{\headcommand {\beamer@framepages {4}{4}}}
\@writefile{toc}{\beamer@subsectionintoc {1}{3}{Classifica\IeC {\c c}\IeC {\~a}o}{5}{0}{1}}
\@writefile{nav}{\headcommand {\beamer@subsectionentry {0}{1}{3}{5}{Classifica\IeC {\c c}\IeC {\~a}o}}\headcommand {\beamer@subsectionpages {4}{4}}}
\@writefile{nav}{\headcommand {\slideentry {1}{3}{1}{5/5}{Classifica\IeC {\c c}\IeC {\~a}o}{0}}}
\@writefile{nav}{\headcommand {\beamer@framepages {5}{5}}}
\@writefile{toc}{\beamer@subsectionintoc {1}{4}{Crit\IeC {\'e}rio $\epsilon $ e $\delta $}{6}{0}{1}}
\@writefile{nav}{\headcommand {\beamer@subsectionentry {0}{1}{4}{6}{Crit\IeC {\'e}rio $\epsilon $ e $\delta $}}\headcommand {\beamer@subsectionpages {5}{5}}}
\@writefile{nav}{\headcommand {\slideentry {1}{4}{1}{6/6}{Crit\IeC {\'e}rio $\epsilon $ e $\delta $}{0}}}
\@writefile{nav}{\headcommand {\beamer@framepages {6}{6}}}
\@writefile{toc}{\beamer@subsectionintoc {1}{5}{Entropia e intui\IeC {\c c}\IeC {\~a}o}{7}{0}{1}}
\@writefile{nav}{\headcommand {\beamer@subsectionentry {0}{1}{5}{7}{Entropia e intui\IeC {\c c}\IeC {\~a}o}}\headcommand {\beamer@subsectionpages {6}{6}}}
\@writefile{nav}{\headcommand {\slideentry {1}{5}{1}{7/7}{Entropia e intui\IeC {\c c}\IeC {\~a}o}{0}}}
\@writefile{nav}{\headcommand {\beamer@framepages {7}{7}}}
\@writefile{toc}{\beamer@sectionintoc {2}{Desenvolvimento}{8}{0}{2}}
\@writefile{nav}{\headcommand {\sectionentry {2}{Desenvolvimento}{8}{Desenvolvimento}{0}}}
\@writefile{nav}{\headcommand {\beamer@sectionpages {3}{7}}}
\@writefile{nav}{\headcommand {\beamer@subsectionpages {7}{7}}}
\@writefile{toc}{\beamer@subsectionintoc {2}{1}{Modelo}{8}{0}{2}}
\@writefile{nav}{\headcommand {\beamer@subsectionentry {0}{2}{1}{8}{Modelo}}\headcommand {\beamer@subsectionpages {8}{7}}}
\@writefile{nav}{\headcommand {\slideentry {2}{1}{1}{8/8}{Modelo}{0}}}
\@writefile{nav}{\headcommand {\beamer@framepages {8}{8}}}
\@writefile{toc}{\beamer@subsectionintoc {2}{2}{Implementa\IeC {\c c}\IeC {\~a}o}{9}{0}{2}}
\@writefile{nav}{\headcommand {\beamer@subsectionentry {0}{2}{2}{9}{Implementa\IeC {\c c}\IeC {\~a}o}}\headcommand {\beamer@subsectionpages {8}{8}}}
\@writefile{nav}{\headcommand {\slideentry {2}{2}{1}{9/9}{Implementa\IeC {\c c}\IeC {\~a}o}{0}}}
\@writefile{nav}{\headcommand {\beamer@framepages {9}{9}}}
\@writefile{toc}{\beamer@subsectionintoc {2}{3}{Resumo da execu\IeC {\c c}\IeC {\~a}o do programa}{10}{0}{2}}
\@writefile{nav}{\headcommand {\beamer@subsectionentry {0}{2}{3}{10}{Resumo da execu\IeC {\c c}\IeC {\~a}o do programa}}\headcommand {\beamer@subsectionpages {9}{9}}}
\@writefile{nav}{\headcommand {\slideentry {2}{3}{1}{10/10}{Resumo da execu\IeC {\c c}\IeC {\~a}o do programa}{0}}}
\@writefile{nav}{\headcommand {\beamer@framepages {10}{10}}}
\@writefile{toc}{\beamer@subsectionintoc {2}{4}{Resultados - Gr\IeC {\'a}fico}{11}{0}{2}}
\@writefile{nav}{\headcommand {\beamer@subsectionentry {0}{2}{4}{11}{Resultados - Gr\IeC {\'a}fico}}\headcommand {\beamer@subsectionpages {10}{10}}}
\@writefile{nav}{\headcommand {\slideentry {2}{4}{1}{11/11}{Resultados - Gr\IeC {\'a}fico}{0}}}
\@writefile{nav}{\headcommand {\beamer@framepages {11}{11}}}
\@writefile{toc}{\beamer@subsectionintoc {2}{5}{Resultados - Conclus\IeC {\~a}o}{12}{0}{2}}
\@writefile{nav}{\headcommand {\beamer@subsectionentry {0}{2}{5}{12}{Resultados - Conclus\IeC {\~a}o}}\headcommand {\beamer@subsectionpages {11}{11}}}
\@writefile{nav}{\headcommand {\slideentry {2}{5}{1}{12/12}{Resultados - Conclus\IeC {\~a}o}{0}}}
\@writefile{nav}{\headcommand {\beamer@framepages {12}{12}}}
\@writefile{toc}{\beamer@sectionintoc {3}{Trabalhos Futuros}{13}{0}{3}}
\@writefile{nav}{\headcommand {\sectionentry {3}{Trabalhos Futuros}{13}{Trabalhos Futuros}{0}}}
\@writefile{nav}{\headcommand {\beamer@sectionpages {8}{12}}}
\@writefile{nav}{\headcommand {\beamer@subsectionpages {12}{12}}}
\@writefile{nav}{\headcommand {\slideentry {3}{0}{2}{13/13}{}{0}}}
\@writefile{nav}{\headcommand {\beamer@framepages {13}{13}}}
\@writefile{nav}{\headcommand {\slideentry {3}{0}{3}{14/14}{}{0}}}
\@writefile{nav}{\headcommand {\beamer@framepages {14}{14}}}
\@writefile{nav}{\headcommand {\beamer@partpages {1}{14}}}
\@writefile{nav}{\headcommand {\beamer@subsectionpages {13}{14}}}
\@writefile{nav}{\headcommand {\beamer@sectionpages {13}{14}}}
\@writefile{nav}{\headcommand {\beamer@documentpages {14}}}
\@writefile{nav}{\headcommand {\def \inserttotalframenumber {14}}}
