\relax 
\catcode`"\active
\select@language{brazil}
\@writefile{toc}{\select@language{brazil}}
\@writefile{lof}{\select@language{brazil}}
\@writefile{lot}{\select@language{brazil}}
\@writefile{toc}{\contentsline {chapter}{\numberline {1}Introdu\IeC {\c c}\IeC {\~a}o}{1}}
\@writefile{lof}{\addvspace {10\p@ }}
\@writefile{lot}{\addvspace {10\p@ }}
\@writefile{toc}{\contentsline {section}{\numberline {1.1}Algoritmo de aprendizagem de um classificador}{1}}
\newlabel{sec:sec1}{{1.1}{1}}
\@writefile{lof}{\contentsline {figure}{\numberline {1.1}{\ignorespaces modelo de um algoritmo de apredizagem, onde um conjunto de amostras \IeC {\'e} utilizado para aprender uma fun\IeC {\c c}\IeC {\~a}o }}{1}}
\newlabel{fig:fig1}{{1.1}{1}}
\@writefile{lot}{\contentsline {table}{\numberline {1.1}{\ignorespaces tabela de probabilidade conjunta, utilizado por um classificador $\mathaccent "705E\relax {\psi }$ }}{2}}
\newlabel{tab:tab1}{{1.1}{2}}
\@writefile{toc}{\contentsline {section}{\numberline {1.2}Crit\IeC {\'e}rio de qualidade $\epsilon $ e $\delta $ e o n\IeC {\'u}mero m\IeC {\'\i }nimo de amostras}{2}}
\newlabel{sec:sec2}{{1.2}{2}}
\@writefile{toc}{\contentsline {section}{\numberline {1.3}Entropia}{3}}
\newlabel{sec:sec3}{{1.3}{3}}
\@writefile{lof}{\contentsline {figure}{\numberline {1.2}{\ignorespaces Gr\IeC {\'a}fico da entropia de modelos de distribui\IeC {\c c}\IeC {\~a}o de probabilidade para o lan\IeC {\c c}amento de uma moeda (p(x), 1- p(x))}}{4}}
\newlabel{fig:fig2}{{1.2}{4}}
\@writefile{toc}{\contentsline {section}{\numberline {1.4}Estudo da rela\IeC {\c c}\IeC {\~a}o da entropia de um classificador e n\IeC {\'u}mero m\IeC {\'\i }nimo de amostras}{5}}
\newlabel{sec:sec4}{{1.4}{5}}
\@writefile{toc}{\contentsline {chapter}{\numberline {2}Desenvolvimento}{6}}
\@writefile{lof}{\addvspace {10\p@ }}
\@writefile{lot}{\addvspace {10\p@ }}
\@writefile{toc}{\contentsline {section}{\numberline {2.1}modelo}{6}}
\newlabel{sec:sec5}{{2.1}{6}}
\@writefile{lof}{\contentsline {figure}{\numberline {2.1}{\ignorespaces Gr\IeC {\'a}fico que mostra o comportamento da fun\IeC {\c c}\IeC {\~a}o $pdf$ do modelo Gaussiano em rela\IeC {\c c}\IeC {\~a}o a varia\IeC {\c c}\IeC {\~a}o do par\IeC {\^a}metro $\sigma $. }}{7}}
\newlabel{fig:fig3}{{2.1}{7}}
\@writefile{toc}{\contentsline {section}{\numberline {2.2}Implementa\IeC {\c c}\IeC {\~a}o do software de experimentos}{7}}
\newlabel{sec:sec6}{{2.2}{7}}
\@writefile{lof}{\contentsline {figure}{\numberline {2.2}{\ignorespaces Demostra\IeC {\c c}\IeC {\~a}o do met\IeC {\'o}do das probabilidades acumulativas e seus intervalos, para que um n\IeC {\'u}mero ale\IeC {\'a}torio entre 0 e 1 corresponda a uma classe do modelo obdecendo um modelo de probabilidade. }}{8}}
\newlabel{fig:fig4}{{2.2}{8}}
\@writefile{toc}{\contentsline {section}{\numberline {2.3}Resultados}{9}}
\newlabel{sec:sec7}{{2.3}{9}}
\@writefile{lof}{\contentsline {figure}{\numberline {2.3}{\ignorespaces Plotagem consolidada dos resultados obtidos nos experimentos, com a plotagem de cada experimento e gr\IeC {\'a}fico da m\IeC {\'e}dia dos 3 experimentos executados no projeto. }}{9}}
\newlabel{fig:fig5}{{2.3}{9}}
\@writefile{toc}{\contentsline {chapter}{\numberline {3}Trabalhos Futuros}{11}}
\@writefile{lof}{\addvspace {10\p@ }}
\@writefile{lot}{\addvspace {10\p@ }}
\@writefile{toc}{\contentsline {chapter}{\numberline {4}Ap\IeC {\^e}ndices}{12}}
\@writefile{lof}{\addvspace {10\p@ }}
\@writefile{lot}{\addvspace {10\p@ }}
\@writefile{toc}{\contentsline {section}{\numberline {4.1}Links do projeto}{12}}
\newlabel{sec:sec9}{{4.1}{12}}
\@writefile{toc}{\contentsline {section}{\numberline {4.2}Diagrama de execu\IeC {\c c}\IeC {\~a}o}{13}}
\newlabel{sec:sec11}{{4.2}{13}}
\@writefile{lof}{\contentsline {figure}{\numberline {4.1}{\ignorespaces Diagrama de execu\IeC {\c c}\IeC {\~a}o do programa simplificado }}{13}}
\newlabel{fig:fig6}{{4.1}{13}}
\@writefile{toc}{\contentsline {section}{\numberline {4.3}Pseudoc\IeC {\'o}digo Completo}{13}}
\newlabel{sec:sec10}{{4.3}{13}}
\@writefile{loa}{\contentsline {algorithm}{\numberline {1}{\ignorespaces Execu\IeC {\c c}\IeC {\~a}o de experimentos}}{14}}
\newlabel{alg1}{{1}{14}}
\@writefile{loa}{\contentsline {algorithm}{\numberline {2}{\ignorespaces Geradores de classificadores}}{15}}
\newlabel{alg2}{{2}{15}}
\@writefile{loa}{\contentsline {algorithm}{\numberline {3}{\ignorespaces Amostragem}}{16}}
\newlabel{alg3}{{3}{16}}
\@writefile{loa}{\contentsline {algorithm}{\numberline {4}{\ignorespaces Satisfabilidade do criterio $\epsilon $ e $\delta $}}{17}}
\newlabel{alg4}{{4}{17}}
