\relax 
\catcode`"\active
\select@language{brazil}
\@writefile{toc}{\select@language{brazil}}
\@writefile{lof}{\select@language{brazil}}
\@writefile{lot}{\select@language{brazil}}
\@writefile{toc}{\contentsline {section}{\numberline {0.1}Analise da execu\IeC {\c c}\IeC {\~a}o do programa quando \IeC {\'e} gerado apenas uma amostra}{1}}
