{
	"probabilitiesDistributions": [
		{
			"id": "randomVariableDistribution",
			"type": "uniform",
			"variables": [
				{ "label": "0000", "value": 0.0 }, { "label": "0001", "value": 1.0 }, { "label": "0010", "value": 2.0 }, 
				{ "label": "0011", "value": 3.0 }, { "label": "0100", "value": 4.0 }, { "label": "0101", "value": 5.0 }, 
				{ "label": "0110", "value": 6.0 }, { "label": "0111", "value": 7.0 }, { "label": "1000", "value": 8.0 }, 
				{ "label": "1001", "value": 9.0 }, { "label": "1010", "value": 10.0 }, { "label": "1011", "value": 11.0 },
				{ "label": "1100", "value": 12.0 }, { "label": "1101", "value": 13.0 }, { "label": "1110", "value": 14.0 }, 
				{ "label": "1111", "value": 15.0 }
			]
		},

		{
			"id": "AQuarterVariation",
			"type": "gaussian",
			"parameters": [ {"name": "variation", "value": "0.20"}, {"name": "mean", "value": "3.0"} ],
			"variables": [
				{"label": "1", "value": 1.0}, {"label": "2", "value": 2.0}, {"label": "3", "value": 3.0}, {"label": "4", "value": 4.0}, 
				{"label": "5", "value": 5.0}
			]
		},

		{
			"id": "AHalfVariation",
			"type": "gaussian",
			"parameters": [ {"name": "variation", "value": "0.24"}, {"name": "mean", "value": "3.0"} ],
			"variables": [
				{"label": "1", "value": 1.0}, {"label": "2", "value": 2.0}, {"label": "3", "value": 3.0}, {"label": "4", "value": 4.0}, 
				{"label": "5", "value": 5.0}
			]
		},

		{
			"id": "DefaultVariation",
			"type": "gaussian",
			"parameters": [ {"name": "variation", "value": "0.28"}, {"name": "mean", "value": "3.0"} ],
			"variables": [
				{"label": "1", "value": 1.0}, {"label": "2", "value": 2.0}, {"label": "3", "value": 3.0}, {"label": "4", "value": 4.0}, 
				{"label": "5", "value": 5.0}
			]
		},

		{
			"id": "DoubleVariotion",
			"type": "gaussian",
			"parameters": [ {"name": "variation", "value": "0.32"}, {"name": "mean", "value": "3.0"} ],
			"variables": [
				{"label": "1", "value": 1.0}, {"label": "2", "value": 2.0}, {"label": "3", "value": 3.0}, {"label": "4", "value": 4.0}, 
				{"label": "5", "value": 5.0}
			]
		},

		{
			"id": "FourTimesVariation",
			"type": "gaussian",
			"parameters": [ {"name": "variation", "value": "0.34"}, {"name": "mean", "value": "3.0"} ],
			"variables": [
				{"label": "1", "value": 1.0}, {"label": "2", "value": 2.0}, {"label": "3", "value": 3.0}, {"label": "4", "value": 4.0}, 
				{"label": "5", "value": 5.0}
			]
		}

	],

	"classifierGenerators": [
		{
			"distributionId": "randomVariableDistribution",
			"classes": [
				{"label": "1", "value": 1.0}, {"label": "2", "value": 2.0}, {"label": "3", "value": 3.0}, {"label": "4", "value": 4.0}, 
				{"label": "5", "value": 5.0}
			],
			"variables": [
				{"label": "0000", "classesDistributionId": "AQuarterVariation"}, {"label": "0001", "classesDistributionId": "AQuarterVariation"},
				{"label": "0010", "classesDistributionId": "AQuarterVariation"}, {"label": "0011", "classesDistributionId": "AQuarterVariation"},
				{"label": "0100", "classesDistributionId": "AQuarterVariation"}, {"label": "0101", "classesDistributionId": "AQuarterVariation"},
				{"label": "0110", "classesDistributionId": "AQuarterVariation"}, {"label": "0111", "classesDistributionId": "AQuarterVariation"},
				{"label": "1000", "classesDistributionId": "AQuarterVariation"}, {"label": "1001", "classesDistributionId": "AQuarterVariation"},
				{"label": "1010", "classesDistributionId": "AQuarterVariation"}, {"label": "1011", "classesDistributionId": "AQuarterVariation"},
				{"label": "1100", "classesDistributionId": "AQuarterVariation"}, {"label": "1101", "classesDistributionId": "AQuarterVariation"},
				{"label": "1110", "classesDistributionId": "AQuarterVariation"}, {"label": "1111", "classesDistributionId": "AQuarterVariation"}
			],

			"epsilon": 0.1,
			"delta": 0.1,
			"spaceCardinality": 152587890625,
			"numberOfTries": 25, 
			"errorMeasure": "SameClassError"
		},

		{
			"distributionId": "randomVariableDistribution",
			"classes": [
				{"label": "1", "value": 1.0}, {"label": "2", "value": 2.0}, {"label": "3", "value": 3.0}, {"label": "4", "value": 4.0}, 
				{"label": "5", "value": 5.0}
			],
			"variables": [
				{"label": "0000", "classesDistributionId": "AHalfVariation"}, {"label": "0001", "classesDistributionId": "AHalfVariation"},
				{"label": "0010", "classesDistributionId": "AHalfVariation"}, {"label": "0011", "classesDistributionId": "AHalfVariation"},
				{"label": "0100", "classesDistributionId": "AHalfVariation"}, {"label": "0101", "classesDistributionId": "AHalfVariation"},
				{"label": "0110", "classesDistributionId": "AHalfVariation"}, {"label": "0111", "classesDistributionId": "AHalfVariation"},
				{"label": "1000", "classesDistributionId": "AHalfVariation"}, {"label": "1001", "classesDistributionId": "AHalfVariation"},
				{"label": "1010", "classesDistributionId": "AHalfVariation"}, {"label": "1011", "classesDistributionId": "AHalfVariation"},
				{"label": "1100", "classesDistributionId": "AHalfVariation"}, {"label": "1101", "classesDistributionId": "AHalfVariation"},
				{"label": "1110", "classesDistributionId": "AHalfVariation"}, {"label": "1111", "classesDistributionId": "AHalfVariation"}
			],

			"epsilon": 0.1,
			"delta": 0.1,
			"spaceCardinality": 152587890625,
			"numberOfTries": 25, 
			"errorMeasure": "SameClassError"
		},

		{
			"distributionId": "randomVariableDistribution",
			"classes": [
				{"label": "1", "value": 1.0}, {"label": "2", "value": 2.0}, {"label": "3", "value": 3.0}, {"label": "4", "value": 4.0}, 
				{"label": "5", "value": 5.0}
			],
			"variables": [
				{"label": "0000", "classesDistributionId": "DefaultVariation"}, {"label": "0001", "classesDistributionId": "DefaultVariation"},
				{"label": "0010", "classesDistributionId": "DefaultVariation"}, {"label": "0011", "classesDistributionId": "DefaultVariation"},
				{"label": "0100", "classesDistributionId": "DefaultVariation"}, {"label": "0101", "classesDistributionId": "DefaultVariation"},
				{"label": "0110", "classesDistributionId": "DefaultVariation"}, {"label": "0111", "classesDistributionId": "DefaultVariation"},
				{"label": "1000", "classesDistributionId": "DefaultVariation"}, {"label": "1001", "classesDistributionId": "DefaultVariation"},
				{"label": "1010", "classesDistributionId": "DefaultVariation"}, {"label": "1011", "classesDistributionId": "DefaultVariation"},
				{"label": "1100", "classesDistributionId": "DefaultVariation"}, {"label": "1101", "classesDistributionId": "DefaultVariation"},
				{"label": "1110", "classesDistributionId": "DefaultVariation"}, {"label": "1111", "classesDistributionId": "DefaultVariation"}
			],

			"epsilon": 0.1,
			"delta": 0.1,
			"spaceCardinality": 152587890625,
			"numberOfTries": 25, 
			"errorMeasure": "SameClassError"
		},

		{
			"distributionId": "randomVariableDistribution",
			"classes": [
				{"label": "1", "value": 1.0}, {"label": "2", "value": 2.0}, {"label": "3", "value": 3.0}, {"label": "4", "value": 4.0}, 
				{"label": "5", "value": 5.0}
			],
			"variables": [
				{"label": "0000", "classesDistributionId": "DoubleVariotion"}, {"label": "0001", "classesDistributionId": "DoubleVariotion"},
				{"label": "0010", "classesDistributionId": "DoubleVariotion"}, {"label": "0011", "classesDistributionId": "DoubleVariotion"},
				{"label": "0100", "classesDistributionId": "DoubleVariotion"}, {"label": "0101", "classesDistributionId": "DoubleVariotion"},
				{"label": "0110", "classesDistributionId": "DoubleVariotion"}, {"label": "0111", "classesDistributionId": "DoubleVariotion"},
				{"label": "1000", "classesDistributionId": "DoubleVariotion"}, {"label": "1001", "classesDistributionId": "DoubleVariotion"},
				{"label": "1010", "classesDistributionId": "DoubleVariotion"}, {"label": "1011", "classesDistributionId": "DoubleVariotion"},
				{"label": "1100", "classesDistributionId": "DoubleVariotion"}, {"label": "1101", "classesDistributionId": "DoubleVariotion"},
				{"label": "1110", "classesDistributionId": "DoubleVariotion"}, {"label": "1111", "classesDistributionId": "DoubleVariotion"}
			],

			"epsilon": 0.1,
			"delta": 0.1,
			"spaceCardinality": 152587890625,
			"numberOfTries": 25, 
			"errorMeasure": "SameClassError"
		},

		{
			"distributionId": "randomVariableDistribution",
			"classes": [
				{"label": "1", "value": 1.0}, {"label": "2", "value": 2.0}, {"label": "3", "value": 3.0}, {"label": "4", "value": 4.0}, 
				{"label": "5", "value": 5.0}
			],
			"variables": [
				{"label": "0000", "classesDistributionId": "FourTimesVariation"}, {"label": "0001", "classesDistributionId": "FourTimesVariation"},
				{"label": "0010", "classesDistributionId": "FourTimesVariation"}, {"label": "0011", "classesDistributionId": "FourTimesVariation"},
				{"label": "0100", "classesDistributionId": "FourTimesVariation"}, {"label": "0101", "classesDistributionId": "FourTimesVariation"},
				{"label": "0110", "classesDistributionId": "FourTimesVariation"}, {"label": "0111", "classesDistributionId": "FourTimesVariation"},
				{"label": "1000", "classesDistributionId": "FourTimesVariation"}, {"label": "1001", "classesDistributionId": "FourTimesVariation"},
				{"label": "1010", "classesDistributionId": "FourTimesVariation"}, {"label": "1011", "classesDistributionId": "FourTimesVariation"},
				{"label": "1100", "classesDistributionId": "FourTimesVariation"}, {"label": "1101", "classesDistributionId": "FourTimesVariation"},
				{"label": "1110", "classesDistributionId": "FourTimesVariation"}, {"label": "1111", "classesDistributionId": "FourTimesVariation"}
			],

			"epsilon": 0.1,
			"delta": 0.1,
			"spaceCardinality": 152587890625,
			"numberOfTries": 25, 
			"errorMeasure": "SameClassError"
		}
	],

	"minConsecutivePassedToStop": 1,
	"upperBoundInMinSamplesPercentage": 50
}