{
	"probabilitiesDistributions": [
		{
			"id": "randomVariableDistribution",
			"type": "uniform",
			"variables": [
				{ "label": "0000", "value": 0.0 }, { "label": "0001", "value": 1.0 }, { "label": "0010", "value": 2.0 }, 
				{ "label": "0011", "value": 3.0 }, { "label": "0100", "value": 4.0 }, { "label": "0101", "value": 5.0 }, 
				{ "label": "0110", "value": 6.0 }, { "label": "0111", "value": 7.0 }, { "label": "1000", "value": 8.0 }, 
				{ "label": "1001", "value": 9.0 }, { "label": "1010", "value": 10.0 }, { "label": "1011", "value": 11.0 },
				{ "label": "1100", "value": 12.0 }, { "label": "1101", "value": 13.0 }, { "label": "1110", "value": 14.0 }, 
				{ "label": "1111", "value": 15.0 }
			]
		},

		{
			"id": "1st",
			"type": "gaussian",
			"parameters": [ {"name": "variation", "value": "0.10"}, {"name": "mean", "value": "3.0"} ],
			"variables": [
				{"label": "1", "value": 1.0}, {"label": "2", "value": 2.0}, {"label": "3", "value": 3.0}, {"label": "4", "value": 4.0}, 
				{"label": "5", "value": 5.0}
			]
		},

		{
			"id": "2nd",
			"type": "gaussian",
			"parameters": [ {"name": "variation", "value": "0.311111111111"}, {"name": "mean", "value": "3.0"} ],
			"variables": [
				{"label": "1", "value": 1.0}, {"label": "2", "value": 2.0}, {"label": "3", "value": 3.0}, {"label": "4", "value": 4.0}, 
				{"label": "5", "value": 5.0}
			]
		},

		{
			"id": "3rd",
			"type": "gaussian",
			"parameters": [ {"name": "variation", "value": "0.341541541542"}, {"name": "mean", "value": "3.0"} ],
			"variables": [
				{"label": "1", "value": 1.0}, {"label": "2", "value": 2.0}, {"label": "3", "value": 3.0}, {"label": "4", "value": 4.0}, 
				{"label": "5", "value": 5.0}
			]
		},

		{
			"id": "4th",
			"type": "gaussian",
			"parameters": [ {"name": "variation", "value": "0.364364364364"}, {"name": "mean", "value": "3.0"} ],
			"variables": [
				{"label": "1", "value": 1.0}, {"label": "2", "value": 2.0}, {"label": "3", "value": 3.0}, {"label": "4", "value": 4.0}, 
				{"label": "5", "value": 5.0}
			]
		},

		{
			"id": "5th",
			"type": "gaussian",
			"parameters": [ {"name": "variation", "value": "0.385285285285"}, {"name": "mean", "value": "3.0"} ],
			"variables": [
				{"label": "1", "value": 1.0}, {"label": "2", "value": 2.0}, {"label": "3", "value": 3.0}, {"label": "4", "value": 4.0}, 
				{"label": "5", "value": 5.0}
			]
		},

		{
			"id": "6th",
			"type": "gaussian",
			"parameters": [ {"name": "variation", "value": "0.404304304304"}, {"name": "mean", "value": "3.0"} ],
			"variables": [
				{"label": "1", "value": 1.0}, {"label": "2", "value": 2.0}, {"label": "3", "value": 3.0}, {"label": "4", "value": 4.0}, 
				{"label": "5", "value": 5.0}
			]
		},

		{
			"id": "7th",
			"type": "gaussian",
			"parameters": [ {"name": "variation", "value": "0.423323323323"}, {"name": "mean", "value": "3.0"} ],
			"variables": [
				{"label": "1", "value": 1.0}, {"label": "2", "value": 2.0}, {"label": "3", "value": 3.0}, {"label": "4", "value": 4.0}, 
				{"label": "5", "value": 5.0}
			]
		},

		{
			"id": "8th",
			"type": "gaussian",
			"parameters": [ {"name": "variation", "value": "0.442342342342"}, {"name": "mean", "value": "3.0"} ],
			"variables": [
				{"label": "1", "value": 1.0}, {"label": "2", "value": 2.0}, {"label": "3", "value": 3.0}, {"label": "4", "value": 4.0}, 
				{"label": "5", "value": 5.0}
			]
		},

		{
			"id": "9th",
			"type": "gaussian",
			"parameters": [ {"name": "variation", "value": "0.463263263263"}, {"name": "mean", "value": "3.0"} ],
			"variables": [
				{"label": "1", "value": 1.0}, {"label": "2", "value": 2.0}, {"label": "3", "value": 3.0}, {"label": "4", "value": 4.0}, 
				{"label": "5", "value": 5.0}
			]
		},

		{
			"id": "10th",
			"type": "gaussian",
			"parameters": [ {"name": "variation", "value": "0.484184184184"}, {"name": "mean", "value": "3.0"} ],
			"variables": [
				{"label": "1", "value": 1.0}, {"label": "2", "value": 2.0}, {"label": "3", "value": 3.0}, {"label": "4", "value": 4.0}, 
				{"label": "5", "value": 5.0}
			]
		},

		{
			"id": "11th",
			"type": "gaussian",
			"parameters": [ {"name": "variation", "value": "0.486086086086"}, {"name": "mean", "value": "3.0"} ],
			"variables": [
				{"label": "1", "value": 1.0}, {"label": "2", "value": 2.0}, {"label": "3", "value": 3.0}, {"label": "4", "value": 4.0}, 
				{"label": "5", "value": 5.0}
			]
		},

		{
			"id": "12th",
			"type": "gaussian",
			"parameters": [ {"name": "variation", "value": "0.508908908909"}, {"name": "mean", "value": "3.0"} ],
			"variables": [
				{"label": "1", "value": 1.0}, {"label": "2", "value": 2.0}, {"label": "3", "value": 3.0}, {"label": "4", "value": 4.0}, 
				{"label": "5", "value": 5.0}
			]
		},

		{
			"id": "13th",
			"type": "gaussian",
			"parameters": [ {"name": "variation", "value": "0.537437437437"}, {"name": "mean", "value": "3.0"} ],
			"variables": [
				{"label": "1", "value": 1.0}, {"label": "2", "value": 2.0}, {"label": "3", "value": 3.0}, {"label": "4", "value": 4.0}, 
				{"label": "5", "value": 5.0}
			]
		},

		{
			"id": "14th",
			"type": "gaussian",
			"parameters": [ {"name": "variation", "value": "0.567867867868"}, {"name": "mean", "value": "3.0"} ],
			"variables": [
				{"label": "1", "value": 1.0}, {"label": "2", "value": 2.0}, {"label": "3", "value": 3.0}, {"label": "4", "value": 4.0}, 
				{"label": "5", "value": 5.0}
			]
		},

		{
			"id": "15th",
			"type": "gaussian",
			"parameters": [ {"name": "variation", "value": "0.602102102102"}, {"name": "mean", "value": "3.0"} ],
			"variables": [
				{"label": "1", "value": 1.0}, {"label": "2", "value": 2.0}, {"label": "3", "value": 3.0}, {"label": "4", "value": 4.0}, 
				{"label": "5", "value": 5.0}
			]
		},

		{
			"id": "16th",
			"type": "gaussian",
			"parameters": [ {"name": "variation", "value": "0.642042042042"}, {"name": "mean", "value": "3.0"} ],
			"variables": [
				{"label": "1", "value": 1.0}, {"label": "2", "value": 2.0}, {"label": "3", "value": 3.0}, {"label": "4", "value": 4.0}, 
				{"label": "5", "value": 5.0}
			]
		},

		{
			"id": "17th",
			"type": "gaussian",
			"parameters": [ {"name": "variation", "value": "0.737137137137"}, {"name": "mean", "value": "3.0"} ],
			"variables": [
				{"label": "1", "value": 1.0}, {"label": "2", "value": 2.0}, {"label": "3", "value": 3.0}, {"label": "4", "value": 4.0}, 
				{"label": "5", "value": 5.0}
			]
		},

		{
			"id": "18th",
			"type": "gaussian",
			"parameters": [ {"name": "variation", "value": "0.792292292292"}, {"name": "mean", "value": "3.0"} ],
			"variables": [
				{"label": "1", "value": 1.0}, {"label": "2", "value": 2.0}, {"label": "3", "value": 3.0}, {"label": "4", "value": 4.0}, 
				{"label": "5", "value": 5.0}
			]
		},

		{
			"id": "19th",
			"type": "gaussian",
			"parameters": [ {"name": "variation", "value": "0.855055055055"}, {"name": "mean", "value": "3.0"} ],
			"variables": [
				{"label": "1", "value": 1.0}, {"label": "2", "value": 2.0}, {"label": "3", "value": 3.0}, {"label": "4", "value": 4.0}, 
				{"label": "5", "value": 5.0}
			]
		},

		{
			"id": "20th",
			"type": "gaussian",
			"parameters": [ {"name": "variation", "value": "0.929229229229"}, {"name": "mean", "value": "3.0"} ],
			"variables": [
				{"label": "1", "value": 1.0}, {"label": "2", "value": 2.0}, {"label": "3", "value": 3.0}, {"label": "4", "value": 4.0}, 
				{"label": "5", "value": 5.0}
			]
		},

		{
			"id": "21st",
			"type": "gaussian",
			"parameters": [ {"name": "variation", "value": "1.02242242242"}, {"name": "mean", "value": "3.0"} ],
			"variables": [
				{"label": "1", "value": 1.0}, {"label": "2", "value": 2.0}, {"label": "3", "value": 3.0}, {"label": "4", "value": 4.0}, 
				{"label": "5", "value": 5.0}
			]
		},

		{
			"id": "22nd",
			"type": "gaussian",
			"parameters": [ {"name": "variation", "value": "1.15175175175"}, {"name": "mean", "value": "3.0"} ],
			"variables": [
				{"label": "1", "value": 1.0}, {"label": "2", "value": 2.0}, {"label": "3", "value": 3.0}, {"label": "4", "value": 4.0}, 
				{"label": "5", "value": 5.0}
			]
		},

		{
			"id": "23rd",
			"type": "gaussian",
			"parameters": [ {"name": "variation", "value": "1.37237237237"}, {"name": "mean", "value": "3.0"} ],
			"variables": [
				{"label": "1", "value": 1.0}, {"label": "2", "value": 2.0}, {"label": "3", "value": 3.0}, {"label": "4", "value": 4.0}, 
				{"label": "5", "value": 5.0}
			]
		},
		
		{
			"id": "24th",
			"type": "gaussian",
			"parameters": [ {"name": "variation", "value": "2.16816816817"}, {"name": "mean", "value": "3.0"} ],
			"variables": [
				{"label": "1", "value": 1.0}, {"label": "2", "value": 2.0}, {"label": "3", "value": 3.0}, {"label": "4", "value": 4.0}, 
				{"label": "5", "value": 5.0}
			]
		},
		
		{
			"id": "25th",
			"type": "gaussian",
			"parameters": [ {"name": "variation", "value": "2.53453453453"}, {"name": "mean", "value": "3.0"} ],
			"variables": [
				{"label": "1", "value": 1.0}, {"label": "2", "value": 2.0}, {"label": "3", "value": 3.0}, {"label": "4", "value": 4.0}, 
				{"label": "5", "value": 5.0}
			]
		},
		
		{
			"id": "26th",
			"type": "gaussian",
			"parameters": [ {"name": "variation", "value": "4.01501501502"}, {"name": "mean", "value": "3.0"} ],
			"variables": [
				{"label": "1", "value": 1.0}, {"label": "2", "value": 2.0}, {"label": "3", "value": 3.0}, {"label": "4", "value": 4.0}, 
				{"label": "5", "value": 5.0}
			]
		}
	],

	"classifierGenerators": [
		{
			"distributionId": "randomVariableDistribution",
			"classes": [
				{"label": "1", "value": 1.0}, {"label": "2", "value": 2.0}, {"label": "3", "value": 3.0}, {"label": "4", "value": 4.0}, 
				{"label": "5", "value": 5.0}
			],
			"variables": [
				{"label": "0000", "classesDistributionId": "1st"}, {"label": "0001", "classesDistributionId": "1st"},
				{"label": "0010", "classesDistributionId": "1st"}, {"label": "0011", "classesDistributionId": "1st"},
				{"label": "0100", "classesDistributionId": "1st"}, {"label": "0101", "classesDistributionId": "1st"},
				{"label": "0110", "classesDistributionId": "1st"}, {"label": "0111", "classesDistributionId": "1st"},
				{"label": "1000", "classesDistributionId": "1st"}, {"label": "1001", "classesDistributionId": "1st"},
				{"label": "1010", "classesDistributionId": "1st"}, {"label": "1011", "classesDistributionId": "1st"},
				{"label": "1100", "classesDistributionId": "1st"}, {"label": "1101", "classesDistributionId": "1st"},
				{"label": "1110", "classesDistributionId": "1st"}, {"label": "1111", "classesDistributionId": "1st"}
			],

			"epsilon": 0.1,
			"delta": 0.1,
			"spaceCardinality": 152587890625,
			"numberOfTries": 25, 
			"errorMeasure": "ConditionalProbabilityWithOptClassifierClassUsingDistributionModelErrorMeasurer"
		},

		{
			"distributionId": "randomVariableDistribution",
			"classes": [
				{"label": "1", "value": 1.0}, {"label": "2", "value": 2.0}, {"label": "3", "value": 3.0}, {"label": "4", "value": 4.0}, 
				{"label": "5", "value": 5.0}
			],
			"variables": [
				{"label": "0000", "classesDistributionId": "2nd"}, {"label": "0001", "classesDistributionId": "2nd"},
				{"label": "0010", "classesDistributionId": "2nd"}, {"label": "0011", "classesDistributionId": "2nd"},
				{"label": "0100", "classesDistributionId": "2nd"}, {"label": "0101", "classesDistributionId": "2nd"},
				{"label": "0110", "classesDistributionId": "2nd"}, {"label": "0111", "classesDistributionId": "2nd"},
				{"label": "1000", "classesDistributionId": "2nd"}, {"label": "1001", "classesDistributionId": "2nd"},
				{"label": "1010", "classesDistributionId": "2nd"}, {"label": "1011", "classesDistributionId": "2nd"},
				{"label": "1100", "classesDistributionId": "2nd"}, {"label": "1101", "classesDistributionId": "2nd"},
				{"label": "1110", "classesDistributionId": "2nd"}, {"label": "1111", "classesDistributionId": "2nd"}
			],

			"epsilon": 0.1,
			"delta": 0.1,
			"spaceCardinality": 152587890625,
			"numberOfTries": 25, 
			"errorMeasure": "ConditionalProbabilityWithOptClassifierClassUsingDistributionModelErrorMeasurer"
		},

		{
			"distributionId": "randomVariableDistribution",
			"classes": [
				{"label": "1", "value": 1.0}, {"label": "2", "value": 2.0}, {"label": "3", "value": 3.0}, {"label": "4", "value": 4.0}, 
				{"label": "5", "value": 5.0}
			],
			"variables": [
				{"label": "0000", "classesDistributionId": "3rd"}, {"label": "0001", "classesDistributionId": "3rd"},
				{"label": "0010", "classesDistributionId": "3rd"}, {"label": "0011", "classesDistributionId": "3rd"},
				{"label": "0100", "classesDistributionId": "3rd"}, {"label": "0101", "classesDistributionId": "3rd"},
				{"label": "0110", "classesDistributionId": "3rd"}, {"label": "0111", "classesDistributionId": "3rd"},
				{"label": "1000", "classesDistributionId": "3rd"}, {"label": "1001", "classesDistributionId": "3rd"},
				{"label": "1010", "classesDistributionId": "3rd"}, {"label": "1011", "classesDistributionId": "3rd"},
				{"label": "1100", "classesDistributionId": "3rd"}, {"label": "1101", "classesDistributionId": "3rd"},
				{"label": "1110", "classesDistributionId": "3rd"}, {"label": "1111", "classesDistributionId": "3rd"}
			],

			"epsilon": 0.1,
			"delta": 0.1,
			"spaceCardinality": 152587890625,
			"numberOfTries": 25, 
			"errorMeasure": "ConditionalProbabilityWithOptClassifierClassUsingDistributionModelErrorMeasurer"
		},

		{
			"distributionId": "randomVariableDistribution",
			"classes": [
				{"label": "1", "value": 1.0}, {"label": "2", "value": 2.0}, {"label": "3", "value": 3.0}, {"label": "4", "value": 4.0}, 
				{"label": "5", "value": 5.0}
			],
			"variables": [
				{"label": "0000", "classesDistributionId": "4th"}, {"label": "0001", "classesDistributionId": "4th"},
				{"label": "0010", "classesDistributionId": "4th"}, {"label": "0011", "classesDistributionId": "4th"},
				{"label": "0100", "classesDistributionId": "4th"}, {"label": "0101", "classesDistributionId": "4th"},
				{"label": "0110", "classesDistributionId": "4th"}, {"label": "0111", "classesDistributionId": "4th"},
				{"label": "1000", "classesDistributionId": "4th"}, {"label": "1001", "classesDistributionId": "4th"},
				{"label": "1010", "classesDistributionId": "4th"}, {"label": "1011", "classesDistributionId": "4th"},
				{"label": "1100", "classesDistributionId": "4th"}, {"label": "1101", "classesDistributionId": "4th"},
				{"label": "1110", "classesDistributionId": "4th"}, {"label": "1111", "classesDistributionId": "4th"}
			],

			"epsilon": 0.1,
			"delta": 0.1,
			"spaceCardinality": 152587890625,
			"numberOfTries": 25, 
			"errorMeasure": "ConditionalProbabilityWithOptClassifierClassUsingDistributionModelErrorMeasurer"
		},

		{
			"distributionId": "randomVariableDistribution",
			"classes": [
				{"label": "1", "value": 1.0}, {"label": "2", "value": 2.0}, {"label": "3", "value": 3.0}, {"label": "4", "value": 4.0}, 
				{"label": "5", "value": 5.0}
			],
			"variables": [
				{"label": "0000", "classesDistributionId": "5th"}, {"label": "0001", "classesDistributionId": "5th"},
				{"label": "0010", "classesDistributionId": "5th"}, {"label": "0011", "classesDistributionId": "5th"},
				{"label": "0100", "classesDistributionId": "5th"}, {"label": "0101", "classesDistributionId": "5th"},
				{"label": "0110", "classesDistributionId": "5th"}, {"label": "0111", "classesDistributionId": "5th"},
				{"label": "1000", "classesDistributionId": "5th"}, {"label": "1001", "classesDistributionId": "5th"},
				{"label": "1010", "classesDistributionId": "5th"}, {"label": "1011", "classesDistributionId": "5th"},
				{"label": "1100", "classesDistributionId": "5th"}, {"label": "1101", "classesDistributionId": "5th"},
				{"label": "1110", "classesDistributionId": "5th"}, {"label": "1111", "classesDistributionId": "5th"}
			],

			"epsilon": 0.1,
			"delta": 0.1,
			"spaceCardinality": 152587890625,
			"numberOfTries": 25, 
			"errorMeasure": "ConditionalProbabilityWithOptClassifierClassUsingDistributionModelErrorMeasurer"
		},
		{
			"distributionId": "randomVariableDistribution",
			"classes": [
				{"label": "1", "value": 1.0}, {"label": "2", "value": 2.0}, {"label": "3", "value": 3.0}, {"label": "4", "value": 4.0}, 
				{"label": "5", "value": 5.0}
			],
			"variables": [
				{"label": "0000", "classesDistributionId": "6th"}, {"label": "0001", "classesDistributionId": "6th"},
				{"label": "0010", "classesDistributionId": "6th"}, {"label": "0011", "classesDistributionId": "6th"},
				{"label": "0100", "classesDistributionId": "6th"}, {"label": "0101", "classesDistributionId": "6th"},
				{"label": "0110", "classesDistributionId": "6th"}, {"label": "0111", "classesDistributionId": "6th"},
				{"label": "1000", "classesDistributionId": "6th"}, {"label": "1001", "classesDistributionId": "6th"},
				{"label": "1010", "classesDistributionId": "6th"}, {"label": "1011", "classesDistributionId": "6th"},
				{"label": "1100", "classesDistributionId": "6th"}, {"label": "1101", "classesDistributionId": "6th"},
				{"label": "1110", "classesDistributionId": "6th"}, {"label": "1111", "classesDistributionId": "6th"}
			],

			"epsilon": 0.1,
			"delta": 0.1,
			"spaceCardinality": 152587890625,
			"numberOfTries": 25, 
			"errorMeasure": "ConditionalProbabilityWithOptClassifierClassUsingDistributionModelErrorMeasurer"
		},

		{
			"distributionId": "randomVariableDistribution",
			"classes": [
				{"label": "1", "value": 1.0}, {"label": "2", "value": 2.0}, {"label": "3", "value": 3.0}, {"label": "4", "value": 4.0}, 
				{"label": "5", "value": 5.0}
			],
			"variables": [
				{"label": "0000", "classesDistributionId": "7th"}, {"label": "0001", "classesDistributionId": "7th"},
				{"label": "0010", "classesDistributionId": "7th"}, {"label": "0011", "classesDistributionId": "7th"},
				{"label": "0100", "classesDistributionId": "7th"}, {"label": "0101", "classesDistributionId": "7th"},
				{"label": "0110", "classesDistributionId": "7th"}, {"label": "0111", "classesDistributionId": "7th"},
				{"label": "1000", "classesDistributionId": "7th"}, {"label": "1001", "classesDistributionId": "7th"},
				{"label": "1010", "classesDistributionId": "7th"}, {"label": "1011", "classesDistributionId": "7th"},
				{"label": "1100", "classesDistributionId": "7th"}, {"label": "1101", "classesDistributionId": "7th"},
				{"label": "1110", "classesDistributionId": "7th"}, {"label": "1111", "classesDistributionId": "7th"}
			],

			"epsilon": 0.1,
			"delta": 0.1,
			"spaceCardinality": 152587890625,
			"numberOfTries": 25, 
			"errorMeasure": "ConditionalProbabilityWithOptClassifierClassUsingDistributionModelErrorMeasurer"
		},

		{
			"distributionId": "randomVariableDistribution",
			"classes": [
				{"label": "1", "value": 1.0}, {"label": "2", "value": 2.0}, {"label": "3", "value": 3.0}, {"label": "4", "value": 4.0}, 
				{"label": "5", "value": 5.0}
			],
			"variables": [
				{"label": "0000", "classesDistributionId": "8th"}, {"label": "0001", "classesDistributionId": "8th"},
				{"label": "0010", "classesDistributionId": "8th"}, {"label": "0011", "classesDistributionId": "8th"},
				{"label": "0100", "classesDistributionId": "8th"}, {"label": "0101", "classesDistributionId": "8th"},
				{"label": "0110", "classesDistributionId": "8th"}, {"label": "0111", "classesDistributionId": "8th"},
				{"label": "1000", "classesDistributionId": "8th"}, {"label": "1001", "classesDistributionId": "8th"},
				{"label": "1010", "classesDistributionId": "8th"}, {"label": "1011", "classesDistributionId": "8th"},
				{"label": "1100", "classesDistributionId": "8th"}, {"label": "1101", "classesDistributionId": "8th"},
				{"label": "1110", "classesDistributionId": "8th"}, {"label": "1111", "classesDistributionId": "8th"}
			],

			"epsilon": 0.1,
			"delta": 0.1,
			"spaceCardinality": 152587890625,
			"numberOfTries": 25, 
			"errorMeasure": "ConditionalProbabilityWithOptClassifierClassUsingDistributionModelErrorMeasurer"
		},

		{
			"distributionId": "randomVariableDistribution",
			"classes": [
				{"label": "1", "value": 1.0}, {"label": "2", "value": 2.0}, {"label": "3", "value": 3.0}, {"label": "4", "value": 4.0}, 
				{"label": "5", "value": 5.0}
			],
			"variables": [
				{"label": "0000", "classesDistributionId": "9th"}, {"label": "0001", "classesDistributionId": "9th"},
				{"label": "0010", "classesDistributionId": "9th"}, {"label": "0011", "classesDistributionId": "9th"},
				{"label": "0100", "classesDistributionId": "9th"}, {"label": "0101", "classesDistributionId": "9th"},
				{"label": "0110", "classesDistributionId": "9th"}, {"label": "0111", "classesDistributionId": "9th"},
				{"label": "1000", "classesDistributionId": "9th"}, {"label": "1001", "classesDistributionId": "9th"},
				{"label": "1010", "classesDistributionId": "9th"}, {"label": "1011", "classesDistributionId": "9th"},
				{"label": "1100", "classesDistributionId": "9th"}, {"label": "1101", "classesDistributionId": "9th"},
				{"label": "1110", "classesDistributionId": "9th"}, {"label": "1111", "classesDistributionId": "9th"}
			],

			"epsilon": 0.1,
			"delta": 0.1,
			"spaceCardinality": 152587890625,
			"numberOfTries": 25, 
			"errorMeasure": "ConditionalProbabilityWithOptClassifierClassUsingDistributionModelErrorMeasurer"
		},

		{
			"distributionId": "randomVariableDistribution",
			"classes": [
				{"label": "1", "value": 1.0}, {"label": "2", "value": 2.0}, {"label": "3", "value": 3.0}, {"label": "4", "value": 4.0}, 
				{"label": "5", "value": 5.0}
			],
			"variables": [
				{"label": "0000", "classesDistributionId": "10th"}, {"label": "0001", "classesDistributionId": "10th"},
				{"label": "0010", "classesDistributionId": "10th"}, {"label": "0011", "classesDistributionId": "10th"},
				{"label": "0100", "classesDistributionId": "10th"}, {"label": "0101", "classesDistributionId": "10th"},
				{"label": "0110", "classesDistributionId": "10th"}, {"label": "0111", "classesDistributionId": "10th"},
				{"label": "1000", "classesDistributionId": "10th"}, {"label": "1001", "classesDistributionId": "10th"},
				{"label": "1010", "classesDistributionId": "10th"}, {"label": "1011", "classesDistributionId": "10th"},
				{"label": "1100", "classesDistributionId": "10th"}, {"label": "1101", "classesDistributionId": "10th"},
				{"label": "1110", "classesDistributionId": "10th"}, {"label": "1111", "classesDistributionId": "10th"}
			],

			"epsilon": 0.1,
			"delta": 0.1,
			"spaceCardinality": 152587890625,
			"numberOfTries": 25, 
			"errorMeasure": "ConditionalProbabilityWithOptClassifierClassUsingDistributionModelErrorMeasurer"
		},

		{
			"distributionId": "randomVariableDistribution",
			"classes": [
				{"label": "1", "value": 1.0}, {"label": "2", "value": 2.0}, {"label": "3", "value": 3.0}, {"label": "4", "value": 4.0}, 
				{"label": "5", "value": 5.0}
			],
			"variables": [
				{"label": "0000", "classesDistributionId": "11th"}, {"label": "0001", "classesDistributionId": "11th"},
				{"label": "0010", "classesDistributionId": "11th"}, {"label": "0011", "classesDistributionId": "11th"},
				{"label": "0100", "classesDistributionId": "11th"}, {"label": "0101", "classesDistributionId": "11th"},
				{"label": "0110", "classesDistributionId": "11th"}, {"label": "0111", "classesDistributionId": "11th"},
				{"label": "1000", "classesDistributionId": "11th"}, {"label": "1001", "classesDistributionId": "11th"},
				{"label": "1010", "classesDistributionId": "11th"}, {"label": "1011", "classesDistributionId": "11th"},
				{"label": "1100", "classesDistributionId": "11th"}, {"label": "1101", "classesDistributionId": "11th"},
				{"label": "1110", "classesDistributionId": "11th"}, {"label": "1111", "classesDistributionId": "11th"}
			],

			"epsilon": 0.1,
			"delta": 0.1,
			"spaceCardinality": 152587890625,
			"numberOfTries": 25, 
			"errorMeasure": "ConditionalProbabilityWithOptClassifierClassUsingDistributionModelErrorMeasurer"
		},

		{
			"distributionId": "randomVariableDistribution",
			"classes": [
				{"label": "1", "value": 1.0}, {"label": "2", "value": 2.0}, {"label": "3", "value": 3.0}, {"label": "4", "value": 4.0}, 
				{"label": "5", "value": 5.0}
			],
			"variables": [
				{"label": "0000", "classesDistributionId": "12th"}, {"label": "0001", "classesDistributionId": "12th"},
				{"label": "0010", "classesDistributionId": "12th"}, {"label": "0011", "classesDistributionId": "12th"},
				{"label": "0100", "classesDistributionId": "12th"}, {"label": "0101", "classesDistributionId": "12th"},
				{"label": "0110", "classesDistributionId": "12th"}, {"label": "0111", "classesDistributionId": "12th"},
				{"label": "1000", "classesDistributionId": "12th"}, {"label": "1001", "classesDistributionId": "12th"},
				{"label": "1010", "classesDistributionId": "12th"}, {"label": "1011", "classesDistributionId": "12th"},
				{"label": "1100", "classesDistributionId": "12th"}, {"label": "1101", "classesDistributionId": "12th"},
				{"label": "1110", "classesDistributionId": "12th"}, {"label": "1111", "classesDistributionId": "12th"}
			],

			"epsilon": 0.1,
			"delta": 0.1,
			"spaceCardinality": 152587890625,
			"numberOfTries": 25, 
			"errorMeasure": "ConditionalProbabilityWithOptClassifierClassUsingDistributionModelErrorMeasurer"
		},

		{
			"distributionId": "randomVariableDistribution",
			"classes": [
				{"label": "1", "value": 1.0}, {"label": "2", "value": 2.0}, {"label": "3", "value": 3.0}, {"label": "4", "value": 4.0}, 
				{"label": "5", "value": 5.0}
			],
			"variables": [
				{"label": "0000", "classesDistributionId": "13th"}, {"label": "0001", "classesDistributionId": "13th"},
				{"label": "0010", "classesDistributionId": "13th"}, {"label": "0011", "classesDistributionId": "13th"},
				{"label": "0100", "classesDistributionId": "13th"}, {"label": "0101", "classesDistributionId": "13th"},
				{"label": "0110", "classesDistributionId": "13th"}, {"label": "0111", "classesDistributionId": "13th"},
				{"label": "1000", "classesDistributionId": "13th"}, {"label": "1001", "classesDistributionId": "13th"},
				{"label": "1010", "classesDistributionId": "13th"}, {"label": "1011", "classesDistributionId": "13th"},
				{"label": "1100", "classesDistributionId": "13th"}, {"label": "1101", "classesDistributionId": "13th"},
				{"label": "1110", "classesDistributionId": "13th"}, {"label": "1111", "classesDistributionId": "13th"}
			],

			"epsilon": 0.1,
			"delta": 0.1,
			"spaceCardinality": 152587890625,
			"numberOfTries": 25, 
			"errorMeasure": "ConditionalProbabilityWithOptClassifierClassUsingDistributionModelErrorMeasurer"
		},

		{
			"distributionId": "randomVariableDistribution",
			"classes": [
				{"label": "1", "value": 1.0}, {"label": "2", "value": 2.0}, {"label": "3", "value": 3.0}, {"label": "4", "value": 4.0}, 
				{"label": "5", "value": 5.0}
			],
			"variables": [
				{"label": "0000", "classesDistributionId": "14th"}, {"label": "0001", "classesDistributionId": "14th"},
				{"label": "0010", "classesDistributionId": "14th"}, {"label": "0011", "classesDistributionId": "14th"},
				{"label": "0100", "classesDistributionId": "14th"}, {"label": "0101", "classesDistributionId": "14th"},
				{"label": "0110", "classesDistributionId": "14th"}, {"label": "0111", "classesDistributionId": "14th"},
				{"label": "1000", "classesDistributionId": "14th"}, {"label": "1001", "classesDistributionId": "14th"},
				{"label": "1010", "classesDistributionId": "14th"}, {"label": "1011", "classesDistributionId": "14th"},
				{"label": "1100", "classesDistributionId": "14th"}, {"label": "1101", "classesDistributionId": "14th"},
				{"label": "1110", "classesDistributionId": "14th"}, {"label": "1111", "classesDistributionId": "14th"}
			],

			"epsilon": 0.1,
			"delta": 0.1,
			"spaceCardinality": 152587890625,
			"numberOfTries": 25, 
			"errorMeasure": "ConditionalProbabilityWithOptClassifierClassUsingDistributionModelErrorMeasurer"
		},

		{
			"distributionId": "randomVariableDistribution",
			"classes": [
				{"label": "1", "value": 1.0}, {"label": "2", "value": 2.0}, {"label": "3", "value": 3.0}, {"label": "4", "value": 4.0}, 
				{"label": "5", "value": 5.0}
			],
			"variables": [
				{"label": "0000", "classesDistributionId": "15th"}, {"label": "0001", "classesDistributionId": "15th"},
				{"label": "0010", "classesDistributionId": "15th"}, {"label": "0011", "classesDistributionId": "15th"},
				{"label": "0100", "classesDistributionId": "15th"}, {"label": "0101", "classesDistributionId": "15th"},
				{"label": "0110", "classesDistributionId": "15th"}, {"label": "0111", "classesDistributionId": "15th"},
				{"label": "1000", "classesDistributionId": "15th"}, {"label": "1001", "classesDistributionId": "15th"},
				{"label": "1010", "classesDistributionId": "15th"}, {"label": "1011", "classesDistributionId": "15th"},
				{"label": "1100", "classesDistributionId": "15th"}, {"label": "1101", "classesDistributionId": "15th"},
				{"label": "1110", "classesDistributionId": "15th"}, {"label": "1111", "classesDistributionId": "15th"}
			],

			"epsilon": 0.1,
			"delta": 0.1,
			"spaceCardinality": 152587890625,
			"numberOfTries": 25, 
			"errorMeasure": "ConditionalProbabilityWithOptClassifierClassUsingDistributionModelErrorMeasurer"
		},

		{
			"distributionId": "randomVariableDistribution",
			"classes": [
				{"label": "1", "value": 1.0}, {"label": "2", "value": 2.0}, {"label": "3", "value": 3.0}, {"label": "4", "value": 4.0}, 
				{"label": "5", "value": 5.0}
			],
			"variables": [
				{"label": "0000", "classesDistributionId": "16th"}, {"label": "0001", "classesDistributionId": "16th"},
				{"label": "0010", "classesDistributionId": "16th"}, {"label": "0011", "classesDistributionId": "16th"},
				{"label": "0100", "classesDistributionId": "16th"}, {"label": "0101", "classesDistributionId": "16th"},
				{"label": "0110", "classesDistributionId": "16th"}, {"label": "0111", "classesDistributionId": "16th"},
				{"label": "1000", "classesDistributionId": "16th"}, {"label": "1001", "classesDistributionId": "16th"},
				{"label": "1010", "classesDistributionId": "16th"}, {"label": "1011", "classesDistributionId": "16th"},
				{"label": "1100", "classesDistributionId": "16th"}, {"label": "1101", "classesDistributionId": "16th"},
				{"label": "1110", "classesDistributionId": "16th"}, {"label": "1111", "classesDistributionId": "16th"}
			],

			"epsilon": 0.1,
			"delta": 0.1,
			"spaceCardinality": 152587890625,
			"numberOfTries": 25, 
			"errorMeasure": "ConditionalProbabilityWithOptClassifierClassUsingDistributionModelErrorMeasurer"
		},

		{
			"distributionId": "randomVariableDistribution",
			"classes": [
				{"label": "1", "value": 1.0}, {"label": "2", "value": 2.0}, {"label": "3", "value": 3.0}, {"label": "4", "value": 4.0}, 
				{"label": "5", "value": 5.0}
			],
			"variables": [
				{"label": "0000", "classesDistributionId": "17th"}, {"label": "0001", "classesDistributionId": "17th"},
				{"label": "0010", "classesDistributionId": "17th"}, {"label": "0011", "classesDistributionId": "17th"},
				{"label": "0100", "classesDistributionId": "17th"}, {"label": "0101", "classesDistributionId": "17th"},
				{"label": "0110", "classesDistributionId": "17th"}, {"label": "0111", "classesDistributionId": "17th"},
				{"label": "1000", "classesDistributionId": "17th"}, {"label": "1001", "classesDistributionId": "17th"},
				{"label": "1010", "classesDistributionId": "17th"}, {"label": "1011", "classesDistributionId": "17th"},
				{"label": "1100", "classesDistributionId": "17th"}, {"label": "1101", "classesDistributionId": "17th"},
				{"label": "1110", "classesDistributionId": "17th"}, {"label": "1111", "classesDistributionId": "17th"}
			],

			"epsilon": 0.1,
			"delta": 0.1,
			"spaceCardinality": 152587890625,
			"numberOfTries": 25, 
			"errorMeasure": "ConditionalProbabilityWithOptClassifierClassUsingDistributionModelErrorMeasurer"
		},

		{
			"distributionId": "randomVariableDistribution",
			"classes": [
				{"label": "1", "value": 1.0}, {"label": "2", "value": 2.0}, {"label": "3", "value": 3.0}, {"label": "4", "value": 4.0}, 
				{"label": "5", "value": 5.0}
			],
			"variables": [
				{"label": "0000", "classesDistributionId": "18th"}, {"label": "0001", "classesDistributionId": "18th"},
				{"label": "0010", "classesDistributionId": "18th"}, {"label": "0011", "classesDistributionId": "18th"},
				{"label": "0100", "classesDistributionId": "18th"}, {"label": "0101", "classesDistributionId": "18th"},
				{"label": "0110", "classesDistributionId": "18th"}, {"label": "0111", "classesDistributionId": "18th"},
				{"label": "1000", "classesDistributionId": "18th"}, {"label": "1001", "classesDistributionId": "18th"},
				{"label": "1010", "classesDistributionId": "18th"}, {"label": "1011", "classesDistributionId": "18th"},
				{"label": "1100", "classesDistributionId": "18th"}, {"label": "1101", "classesDistributionId": "18th"},
				{"label": "1110", "classesDistributionId": "18th"}, {"label": "1111", "classesDistributionId": "18th"}
			],

			"epsilon": 0.1,
			"delta": 0.1,
			"spaceCardinality": 152587890625,
			"numberOfTries": 25, 
			"errorMeasure": "ConditionalProbabilityWithOptClassifierClassUsingDistributionModelErrorMeasurer"
		},

		{
			"distributionId": "randomVariableDistribution",
			"classes": [
				{"label": "1", "value": 1.0}, {"label": "2", "value": 2.0}, {"label": "3", "value": 3.0}, {"label": "4", "value": 4.0}, 
				{"label": "5", "value": 5.0}
			],
			"variables": [
				{"label": "0000", "classesDistributionId": "19th"}, {"label": "0001", "classesDistributionId": "19th"},
				{"label": "0010", "classesDistributionId": "19th"}, {"label": "0011", "classesDistributionId": "19th"},
				{"label": "0100", "classesDistributionId": "19th"}, {"label": "0101", "classesDistributionId": "19th"},
				{"label": "0110", "classesDistributionId": "19th"}, {"label": "0111", "classesDistributionId": "19th"},
				{"label": "1000", "classesDistributionId": "19th"}, {"label": "1001", "classesDistributionId": "19th"},
				{"label": "1010", "classesDistributionId": "19th"}, {"label": "1011", "classesDistributionId": "19th"},
				{"label": "1100", "classesDistributionId": "19th"}, {"label": "1101", "classesDistributionId": "19th"},
				{"label": "1110", "classesDistributionId": "19th"}, {"label": "1111", "classesDistributionId": "19th"}
			],

			"epsilon": 0.1,
			"delta": 0.1,
			"spaceCardinality": 152587890625,
			"numberOfTries": 25, 
			"errorMeasure": "ConditionalProbabilityWithOptClassifierClassUsingDistributionModelErrorMeasurer"
		},

		{
			"distributionId": "randomVariableDistribution",
			"classes": [
				{"label": "1", "value": 1.0}, {"label": "2", "value": 2.0}, {"label": "3", "value": 3.0}, {"label": "4", "value": 4.0}, 
				{"label": "5", "value": 5.0}
			],
			"variables": [
				{"label": "0000", "classesDistributionId": "20th"}, {"label": "0001", "classesDistributionId": "20th"},
				{"label": "0010", "classesDistributionId": "20th"}, {"label": "0011", "classesDistributionId": "20th"},
				{"label": "0100", "classesDistributionId": "20th"}, {"label": "0101", "classesDistributionId": "20th"},
				{"label": "0110", "classesDistributionId": "20th"}, {"label": "0111", "classesDistributionId": "20th"},
				{"label": "1000", "classesDistributionId": "20th"}, {"label": "1001", "classesDistributionId": "20th"},
				{"label": "1010", "classesDistributionId": "20th"}, {"label": "1011", "classesDistributionId": "20th"},
				{"label": "1100", "classesDistributionId": "20th"}, {"label": "1101", "classesDistributionId": "20th"},
				{"label": "1110", "classesDistributionId": "20th"}, {"label": "1111", "classesDistributionId": "20th"}
			],

			"epsilon": 0.1,
			"delta": 0.1,
			"spaceCardinality": 152587890625,
			"numberOfTries": 25, 
			"errorMeasure": "ConditionalProbabilityWithOptClassifierClassUsingDistributionModelErrorMeasurer"
		},

		{
			"distributionId": "randomVariableDistribution",
			"classes": [
				{"label": "1", "value": 1.0}, {"label": "2", "value": 2.0}, {"label": "3", "value": 3.0}, {"label": "4", "value": 4.0}, 
				{"label": "5", "value": 5.0}
			],
			"variables": [
				{"label": "0000", "classesDistributionId": "21st"}, {"label": "0001", "classesDistributionId": "21st"},
				{"label": "0010", "classesDistributionId": "21st"}, {"label": "0011", "classesDistributionId": "21st"},
				{"label": "0100", "classesDistributionId": "21st"}, {"label": "0101", "classesDistributionId": "21st"},
				{"label": "0110", "classesDistributionId": "21st"}, {"label": "0111", "classesDistributionId": "21st"},
				{"label": "1000", "classesDistributionId": "21st"}, {"label": "1001", "classesDistributionId": "21st"},
				{"label": "1010", "classesDistributionId": "21st"}, {"label": "1011", "classesDistributionId": "21st"},
				{"label": "1100", "classesDistributionId": "21st"}, {"label": "1101", "classesDistributionId": "21st"},
				{"label": "1110", "classesDistributionId": "21st"}, {"label": "1111", "classesDistributionId": "21st"}
			],

			"epsilon": 0.1,
			"delta": 0.1,
			"spaceCardinality": 152587890625,
			"numberOfTries": 25, 
			"errorMeasure": "ConditionalProbabilityWithOptClassifierClassUsingDistributionModelErrorMeasurer"
		},

		{
			"distributionId": "randomVariableDistribution",
			"classes": [
				{"label": "1", "value": 1.0}, {"label": "2", "value": 2.0}, {"label": "3", "value": 3.0}, {"label": "4", "value": 4.0}, 
				{"label": "5", "value": 5.0}
			],
			"variables": [
				{"label": "0000", "classesDistributionId": "22nd"}, {"label": "0001", "classesDistributionId": "22nd"},
				{"label": "0010", "classesDistributionId": "22nd"}, {"label": "0011", "classesDistributionId": "22nd"},
				{"label": "0100", "classesDistributionId": "22nd"}, {"label": "0101", "classesDistributionId": "22nd"},
				{"label": "0110", "classesDistributionId": "22nd"}, {"label": "0111", "classesDistributionId": "22nd"},
				{"label": "1000", "classesDistributionId": "22nd"}, {"label": "1001", "classesDistributionId": "22nd"},
				{"label": "1010", "classesDistributionId": "22nd"}, {"label": "1011", "classesDistributionId": "22nd"},
				{"label": "1100", "classesDistributionId": "22nd"}, {"label": "1101", "classesDistributionId": "22nd"},
				{"label": "1110", "classesDistributionId": "22nd"}, {"label": "1111", "classesDistributionId": "22nd"}
			],

			"epsilon": 0.1,
			"delta": 0.1,
			"spaceCardinality": 152587890625,
			"numberOfTries": 25, 
			"errorMeasure": "ConditionalProbabilityWithOptClassifierClassUsingDistributionModelErrorMeasurer"
		},

		{
			"distributionId": "randomVariableDistribution",
			"classes": [
				{"label": "1", "value": 1.0}, {"label": "2", "value": 2.0}, {"label": "3", "value": 3.0}, {"label": "4", "value": 4.0}, 
				{"label": "5", "value": 5.0}
			],
			"variables": [
				{"label": "0000", "classesDistributionId": "23rd"}, {"label": "0001", "classesDistributionId": "23rd"},
				{"label": "0010", "classesDistributionId": "23rd"}, {"label": "0011", "classesDistributionId": "23rd"},
				{"label": "0100", "classesDistributionId": "23rd"}, {"label": "0101", "classesDistributionId": "23rd"},
				{"label": "0110", "classesDistributionId": "23rd"}, {"label": "0111", "classesDistributionId": "23rd"},
				{"label": "1000", "classesDistributionId": "23rd"}, {"label": "1001", "classesDistributionId": "23rd"},
				{"label": "1010", "classesDistributionId": "23rd"}, {"label": "1011", "classesDistributionId": "23rd"},
				{"label": "1100", "classesDistributionId": "23rd"}, {"label": "1101", "classesDistributionId": "23rd"},
				{"label": "1110", "classesDistributionId": "23rd"}, {"label": "1111", "classesDistributionId": "23rd"}
			],

			"epsilon": 0.1,
			"delta": 0.1,
			"spaceCardinality": 152587890625,
			"numberOfTries": 25, 
			"errorMeasure": "ConditionalProbabilityWithOptClassifierClassUsingDistributionModelErrorMeasurer"
		},
		
		{
			"distributionId": "randomVariableDistribution",
			"classes": [
				{"label": "1", "value": 1.0}, {"label": "2", "value": 2.0}, {"label": "3", "value": 3.0}, {"label": "4", "value": 4.0}, 
				{"label": "5", "value": 5.0}
			],
			"variables": [
				{"label": "0000", "classesDistributionId": "24th"}, {"label": "0001", "classesDistributionId": "24th"},
				{"label": "0010", "classesDistributionId": "24th"}, {"label": "0011", "classesDistributionId": "24th"},
				{"label": "0100", "classesDistributionId": "24th"}, {"label": "0101", "classesDistributionId": "24th"},
				{"label": "0110", "classesDistributionId": "24th"}, {"label": "0111", "classesDistributionId": "24th"},
				{"label": "1000", "classesDistributionId": "24th"}, {"label": "1001", "classesDistributionId": "24th"},
				{"label": "1010", "classesDistributionId": "24th"}, {"label": "1011", "classesDistributionId": "24th"},
				{"label": "1100", "classesDistributionId": "24th"}, {"label": "1101", "classesDistributionId": "24th"},
				{"label": "1110", "classesDistributionId": "24th"}, {"label": "1111", "classesDistributionId": "24th"}
			],

			"epsilon": 0.1,
			"delta": 0.1,
			"spaceCardinality": 152587890625,
			"numberOfTries": 25, 
			"errorMeasure": "ConditionalProbabilityWithOptClassifierClassUsingDistributionModelErrorMeasurer"
		},
		
		{
			"distributionId": "randomVariableDistribution",
			"classes": [
				{"label": "1", "value": 1.0}, {"label": "2", "value": 2.0}, {"label": "3", "value": 3.0}, {"label": "4", "value": 4.0}, 
				{"label": "5", "value": 5.0}
			],
			"variables": [
				{"label": "0000", "classesDistributionId": "25th"}, {"label": "0001", "classesDistributionId": "25th"},
				{"label": "0010", "classesDistributionId": "25th"}, {"label": "0011", "classesDistributionId": "25th"},
				{"label": "0100", "classesDistributionId": "25th"}, {"label": "0101", "classesDistributionId": "25th"},
				{"label": "0110", "classesDistributionId": "25th"}, {"label": "0111", "classesDistributionId": "25th"},
				{"label": "1000", "classesDistributionId": "25th"}, {"label": "1001", "classesDistributionId": "25th"},
				{"label": "1010", "classesDistributionId": "25th"}, {"label": "1011", "classesDistributionId": "25th"},
				{"label": "1100", "classesDistributionId": "25th"}, {"label": "1101", "classesDistributionId": "25th"},
				{"label": "1110", "classesDistributionId": "25th"}, {"label": "1111", "classesDistributionId": "25th"}
			],

			"epsilon": 0.1,
			"delta": 0.1,
			"spaceCardinality": 152587890625,
			"numberOfTries": 25, 
			"errorMeasure": "ConditionalProbabilityWithOptClassifierClassUsingDistributionModelErrorMeasurer"
		},
		
		{
			"distributionId": "randomVariableDistribution",
			"classes": [
				{"label": "1", "value": 1.0}, {"label": "2", "value": 2.0}, {"label": "3", "value": 3.0}, {"label": "4", "value": 4.0}, 
				{"label": "5", "value": 5.0}
			],
			"variables": [
				{"label": "0000", "classesDistributionId": "26th"}, {"label": "0001", "classesDistributionId": "26th"},
				{"label": "0010", "classesDistributionId": "26th"}, {"label": "0011", "classesDistributionId": "26th"},
				{"label": "0100", "classesDistributionId": "26th"}, {"label": "0101", "classesDistributionId": "26th"},
				{"label": "0110", "classesDistributionId": "26th"}, {"label": "0111", "classesDistributionId": "26th"},
				{"label": "1000", "classesDistributionId": "26th"}, {"label": "1001", "classesDistributionId": "26th"},
				{"label": "1010", "classesDistributionId": "26th"}, {"label": "1011", "classesDistributionId": "26th"},
				{"label": "1100", "classesDistributionId": "26th"}, {"label": "1101", "classesDistributionId": "26th"},
				{"label": "1110", "classesDistributionId": "26th"}, {"label": "1111", "classesDistributionId": "26th"}
			],

			"epsilon": 0.1,
			"delta": 0.1,
			"spaceCardinality": 152587890625,
			"numberOfTries": 25, 
			"errorMeasure": "ConditionalProbabilityWithOptClassifierClassUsingDistributionModelErrorMeasurer"
		}
	],

	"minConsecutivePassedToStop": 1,
	"upperBoundInMinSamplesPercentage": 50
}